<?xml version="1.0" encoding="utf-8"?>
<!-- Generator: Adobe Illustrator 19.0.0, SVG Export Plug-In . SVG Version: 6.00 Build 0)  -->
<svg version="1.1" id="Layer_1" xmlns="http://www.w3.org/2000/svg" xmlns:xlink="http://www.w3.org/1999/xlink" x="0px" y="0px"
	 viewBox="0 0 453.5 212.6" style="enable-background:new 0 0 453.5 212.6;" xml:space="preserve">
<style type="text/css">
	.st0{fill:#AD1F10;}
	.st1{fill:#FFFFFF;}
</style>
<rect x="9.3" y="4.3" class="st0" width="435" height="201.2"/>
<g>
	<path class="st1" d="M94.9,150.6c-4.4,0-14,0-14.7,0c0-24.6,0-55.2,0-79.8c4.9,0,9.7,0,14.7,0C95,95.2,94.9,125.8,94.9,150.6z"/>
	<path class="st1" d="M110.6,56.2c5,0,9.8,0,14.7,0c0,31.5,0,62.7,0,94.3c-4.8,0-9.7,0-14.7,0C110.6,119.2,110.6,87.8,110.6,56.2z"
		/>
	<path class="st1" d="M364.6,150.5c-5,0-9.8,0-14.7,0c0-31.5,0-62.9,0-94.4c5,0,9.7,0,14.7,0C364.6,87.5,364.6,118.9,364.6,150.5z"
		/>
	<path class="st1" d="M368,67.3c0-3.5,0-7.7,0-11.2c12.7,0,17.7,4.9,19,13.4c1.1,7,1.1,14.1-0.1,21.1c-1.1,6.3-4.9,10.4-11.2,11.5
		c-1.6,0.3-4.6,0.2-7.7,0.2c0-3.9,0-7.8,0-11.1c1.1,0,3.3-1.1,3.9-2.2c0.8-1.3,0.8-2.5,0.8-4.2c0-3.8,0-7.4,0-11.5
		C372.7,69.3,372.1,68,368,67.3z"/>
	<path class="st1" d="M237.9,150.6c0-3.9,0-7.6,0-11.4c5.5,0,11.7,0,17.3,0c0,3.8,0,7.5,0,11.4C249.8,150.6,243.6,150.6,237.9,150.6
		z"/>
	<path class="st1" d="M237.9,67.5c0-3.8,0-7.5,0-11.4c4.7,0,9.1,0,14,0c0,3.6,0,7.5,0,11.4C247.2,67.5,242.9,67.5,237.9,67.5z"/>
	<path class="st1" d="M237.9,102.4c0-3.9,0-7.4,0-11.2c3.6,0,6.8,0,10.4,0c0,3.8,0,7.3,0,11.2C244.8,102.4,241.6,102.4,237.9,102.4z
		"/>
	<path class="st1" d="M326.1,150.6c0-3.9,0-7.6,0-11.4c5.5,0,11.7,0,17.3,0c0,3.8,0,7.5,0,11.4C338,150.6,331.8,150.6,326.1,150.6z"
		/>
	<path class="st1" d="M326.1,67.5c0-3.8,0-7.5,0-11.4c4.7,0,9.1,0,14,0c0,3.6,0,7.5,0,11.4C335.4,67.5,331.1,67.5,326.1,67.5z"/>
	<path class="st1" d="M326.1,102.4c0-3.9,0-7.4,0-11.2c3.6,0,6.8,0,10.4,0c0,3.8,0,7.3,0,11.2C332.9,102.4,329.8,102.4,326.1,102.4z
		"/>
	<path class="st1" d="M323,67.5V56.1c-0.9,0-1.9,0-2.8,0c-3.9,0-7.7,0-11.6,0c-1,0-2.1,0-3.2,0c0,31.5,0,63,0,94.5c0,0,0.1,0,0.1,0
		c4.8,0,9.9,0,14.7,0c0.9,0,1.8,0,2.6,0v-11.4l0,0c-1.5-0.3-2.6-1.7-2.6-3.3v-30.2c0-1.6,1.1-3,2.7-3.3l0.1,0V91.3l-0.1,0
		c-1.6-0.3-2.7-1.7-2.7-3.3V70.8c0-1.6,1.1-3,2.7-3.3L323,67.5z"/>
	<path class="st1" d="M234.7,67.5V56.1c-0.9,0-1.9,0-2.8,0c-3.9,0-7.7,0-11.6,0c-1,0-2.1,0-3.2,0c0,31.5,0,63,0,94.5
		c0,0,0.1,0,0.1,0c4.8,0,9.9,0,14.7,0c0.9,0,1.8,0,2.6,0v-11.4l0,0c-1.5-0.3-2.6-1.7-2.6-3.3v-30.2c0-1.6,1.1-3,2.7-3.3l0.1,0V91.3
		l-0.1,0c-1.6-0.3-2.7-1.7-2.7-3.3V70.8c0-1.6,1.1-3,2.7-3.3L234.7,67.5z"/>
	<rect x="71.2" y="56.2" class="st1" width="32.9" height="11.3"/>
	<polyline class="st1" points="135.4,56.2 151.1,56.2 136.9,103.4 151.1,150.6 135.4,150.6 128.5,127.8 128.5,78.8 135.4,56.2 	"/>
	<line class="st1" x1="128.5" y1="127.8" x2="128.5" y2="78.8"/>
	<path class="st1" d="M261.6,150.6c0-31.5,0-62.9,0-94.5c4.9,0,9.7,0,14.7,0c0,31.4,0,62.9,0,94.5
		C271.5,150.6,266.6,150.6,261.6,150.6z"/>
	<path class="st1" d="M279.6,139.4c4.1-0.3,4.8-1.5,4.8-5.7c0-8.2,0-16.8,0-25.1c0-0.4,0-0.8,0-1.1c-0.2-3.6-1-4.6-4.8-5.2
		c0-3.5,0-7.4,0-11.1c3.5-0.4,4.3-3.2,4.2-6.5c0-4.3,0-7.5,0-12c0-3.5-0.6-4.9-4.2-5.5c0-3.5,0-7.7,0-11.2c9.8,0,15.6,2.9,17.9,10.9
		c1.9,6.7,1.7,13.1,0.9,19.9c-0.5,4.3-2.8,7.8-7,9.9c5.2,2.2,7.7,6,7.7,11.5c0,8.7,0.1,16.1,0,25.2c0,1.7-0.4,4.7-0.8,6.3
		c-1.4,5.4-4.7,9-10.2,10.2c-2.7,0.6-5.5,0.7-8.5,0.7C279.6,146.5,279.6,143,279.6,139.4z"/>
	<g>
		<path class="st1" d="M190.2,67.5c0-4.3,0-8.3,0-12.2c-8.6,0.7-14,4.8-16.1,13c-0.7,2.9-1.2,5.9-1.2,8.9c-0.1,17.2-0.1,34.5,0,51.8
			c0,4.4,0.7,8.6,2.6,12.6c2.6,5.5,6.8,8.7,12.8,9.6c0.6,0.1,1.2,0.3,2,0.3c0-4.1,0-8,0-12.2c-1.9-1.3-2.3-3.4-2.3-5.8
			c0-20.3,0-40.5,0-60.8C188,70.4,188,68.6,190.2,67.5z"/>
		<path class="st1" d="M193.4,67.5c0-4.3,0-8.3,0-12.2c8.6,0.7,14,4.9,16.2,13.1c0.7,2.9,1.2,5.9,1.2,8.9c0,2.6,0,5.2,0,7.8h-15.1
			c0-4.1,0-8.3,0-12.4C195.6,70.4,195.6,68.6,193.4,67.5z"/>
		<path class="st1" d="M210.8,121.8c0,2.4,0,4.8,0,7.2c0,4.4-0.7,8.6-2.6,12.6c-2.6,5.5-6.8,8.7-12.8,9.6c-0.6,0.1-1.2,0.2-2,0.2
			v-12.2c1.9-1.3,2.3-3.4,2.3-5.8c0-3.9,0-7.7,0-11.6H210.8z"/>
	</g>
</g>
</svg>
